R wrappers for open-meteo.org API • RopenMeteo
…
Converting to Ecological Forecasting Initative convention

The standard used in the NEON Ecological Forecasting Challenge is slightly different from the standard in this package. It uses the column parameter for ensemble because the Challenge standard allows the flexibility to use parametric distributions (i.e., normal distribution mean and sd) in the same standard as a ensemble (or sample) forecast. The family column defines the distribution (here family = ensemble).

The EFI standard also follows CF-conventions so the variable names are converted to be CF compliant.

The output from RopenMeteo::convert_to_efi_standard() is the same as the output from neon4cast::stage2()

Learn more about neon4cast::stage2() here: <https://projects.ecoforecast.org/neon4cast−docs/Shared−Forecast−Drivers.html><https://projects.ecoforecast.org/neon4cast-docs/Shared-Forecast-Drivers.html>

df |>
  RopenMeteo::add_longwave() |>
  RopenMeteo::convert_to_efi_standard()

## # A tibble: 53,568 × 8
##    datetime            reference_datetime  site_id     model_id family parameter
##    <dttm>              <dttm>              <chr>       <chr>    <chr>  <chr>
##  1 2023-09-23 00:00:00 2023-09-25 00:00:00 37.3_-79.83 gfs_sea… ensem… 00
##  2 2023-09-23 00:00:00 2023-09-25 00:00:00 37.3_-79.83 gfs_sea… ensem… 00
##  3 2023-09-23 00:00:00 2023-09-25 00:00:00 37.3_-79.83 gfs_sea… ensem… 00
##  4 2023-09-23 00:00:00 2023-09-25 00:00:00 37.3_-79.83 gfs_sea… ensem… 00
##  5 2023-09-23 00:00:00 2023-09-25 00:00:00 37.3_-79.83 gfs_sea… ensem… 00
##  6 2023-09-23 00:00:00 2023-09-25 00:00:00 37.3_-79.83 gfs_sea… ensem… 00
##  7 2023-09-23 00:00:00 2023-09-25 00:00:00 37.3_-79.83 gfs_sea… ensem… 00
##  8 2023-09-23 00:00:00 2023-09-25 00:00:00 37.3_-79.83 gfs_sea… ensem… 00
##  9 2023-09-23 00:00:00 2023-09-25 00:00:00 37.3_-79.83 gfs_sea… ensem… 01
## 10 2023-09-23 00:00:00 2023-09-25 00:00:00 37.3_-79.83 gfs_sea… ensem… 01
## # ℹ 53,558 more rows
## # ℹ 2 more variables: variable <chr>, prediction <dbl>

Note that neon4cast::stage3() is similar to

df |>
  RopenMeteo::add_longwave() |>
  RopenMeteo::convert_to_efi_standard() |> 
  filter(datetime < reference_datetime)

## # A tibble: 11,904 × 8
##    datetime            reference_datetime  site_id     model_id family parameter
##    <dttm>              <dttm>              <chr>       <chr>    <chr>  <chr>
##  1 2023-09-23 00:00:00 2023-09-25 00:00:00 37.3_-79.83 gfs_sea… ensem… 00
##  2 2023-09-23 00:00:00 2023-09-25 00:00:00 37.3_-79.83 gfs_sea… ensem… 00
##  3 2023-09-23 00:00:00 2023-09-25 00:00:00 37.3_-79.83 gfs_sea… ensem… 00
##  4 2023-09-23 00:00:00 2023-09-25 00:00:00 37.3_-79.83 gfs_sea… ensem… 00
##  5 2023-09-23 00:00:00 2023-09-25 00:00:00 37.3_-79.83 gfs_sea… ensem… 00
##  6 2023-09-23 00:00:00 2023-09-25 00:00:00 37.3_-79.83 gfs_sea… ensem… 00
##  7 2023-09-23 00:00:00 2023-09-25 00:00:00 37.3_-79.83 gfs_sea… ensem… 00
##  8 2023-09-23 00:00:00 2023-09-25 00:00:00 37.3_-79.83 gfs_sea… ensem… 00
##  9 2023-09-23 00:00:00 2023-09-25 00:00:00 37.3_-79.83 gfs_sea… ensem… 01
## 10 2023-09-23 00:00:00 2023-09-25 00:00:00 37.3_-79.83 gfs_sea… ensem… 01
## # ℹ 11,894 more rows
## # ℹ 2 more variables: variable <chr>, prediction <dbl>
…
