Example Usage • RopenMeteo
…
The EFI standard also follows CF-conventions so the variable names
are converted to be CF compliant.

The output from RopenMeteo::convert_to_efi_standard() is
the same as the output from neon4cast::stage2()

Learn more about neon4cast::stage2() here: [https://projects.ecoforecast.org/neon4cast-docs/Shared-Forecast-Drivers.html]

df |>
  add_longwave() |>
  convert_to_efi_standard()
#> # A tibble: 53,568 × 8
#>    datetime            reference_datetime  site_id     model_id family parameter
#>    <dttm>              <dttm>              <chr>       <chr>    <chr>  <chr>    
#>  1 2024-08-20 00:00:00 2024-08-22 00:00:00 37.3_-79.83 gfs_sea… ensem… 00       
#>  2 2024-08-20 00:00:00 2024-08-22 00:00:00 37.3_-79.83 gfs_sea… ensem… 00       
#>  3 2024-08-20 00:00:00 2024-08-22 00:00:00 37.3_-79.83 gfs_sea… ensem… 00       
#>  4 2024-08-20 00:00:00 2024-08-22 00:00:00 37.3_-79.83 gfs_sea… ensem… 00       
#>  5 2024-08-20 00:00:00 2024-08-22 00:00:00 37.3_-79.83 gfs_sea… ensem… 00       
#>  6 2024-08-20 00:00:00 2024-08-22 00:00:00 37.3_-79.83 gfs_sea… ensem… 00       
#>  7 2024-08-20 00:00:00 2024-08-22 00:00:00 37.3_-79.83 gfs_sea… ensem… 00       
#>  8 2024-08-20 00:00:00 2024-08-22 00:00:00 37.3_-79.83 gfs_sea… ensem… 00       
#>  9 2024-08-20 00:00:00 2024-08-22 00:00:00 37.3_-79.83 gfs_sea… ensem… 01       
#> 10 2024-08-20 00:00:00 2024-08-22 00:00:00 37.3_-79.83 gfs_sea… ensem… 01       
#> # ℹ 53,558 more rows
#> # ℹ 2 more variables: variable <chr>, prediction <dbl>

Note that neon4cast::stage3() is similar to

df |>
  add_longwave() |>
  convert_to_efi_standard() |> 
  filter(datetime < reference_datetime)
#> # A tibble: 11,904 × 8
#>    datetime            reference_datetime  site_id     model_id family parameter
#>    <dttm>              <dttm>              <chr>       <chr>    <chr>  <chr>    
#>  1 2024-08-20 00:00:00 2024-08-22 00:00:00 37.3_-79.83 gfs_sea… ensem… 00       
#>  2 2024-08-20 00:00:00 2024-08-22 00:00:00 37.3_-79.83 gfs_sea… ensem… 00       
#>  3 2024-08-20 00:00:00 2024-08-22 00:00:00 37.3_-79.83 gfs_sea… ensem… 00       
#>  4 2024-08-20 00:00:00 2024-08-22 00:00:00 37.3_-79.83 gfs_sea… ensem… 00       
#>  5 2024-08-20 00:00:00 2024-08-22 00:00:00 37.3_-79.83 gfs_sea… ensem… 00       
#>  6 2024-08-20 00:00:00 2024-08-22 00:00:00 37.3_-79.83 gfs_sea… ensem… 00       
#>  7 2024-08-20 00:00:00 2024-08-22 00:00:00 37.3_-79.83 gfs_sea… ensem… 00       
#>  8 2024-08-20 00:00:00 2024-08-22 00:00:00 37.3_-79.83 gfs_sea… ensem… 00       
#>  9 2024-08-20 00:00:00 2024-08-22 00:00:00 37.3_-79.83 gfs_sea… ensem… 01       
#> 10 2024-08-20 00:00:00 2024-08-22 00:00:00 37.3_-79.83 gfs_sea… ensem… 01       
#> # ℹ 11,894 more rows
#> # ℹ 2 more variables: variable <chr>, prediction <dbl>
…
